{
    "jsonapi": {
        "version": "1.0"
    },
    "data": {
        "type": "distribution",
        "id": "12345678-910a-bcde-f123-45678910abcd",
        "attributes": {
            "id": "12345678-910a-bcde-f123-45678910abcd",
            "dcat:accessURL": "https://example.com/test.csv",
            "dct:format": "http://publications.europa.eu/resource/authority/file-type/CSV",
            "dct:license": "http://creativecommons.org/licenses/by/4.0/deed.nl",
            "dct:issued": "2022-07-25T00:00:00",
            "dct:language": [
                "http://publications.europa.eu/resource/authority/language/NLD"
            ],
            "donl:distributionType": "https://data.overheid.nl/distributiontype/download"
        },
        "links": {
            "self": "https://example.com/dataset/12345678-910a-bcde-f123-45678910abcd#12345678-910a-bcde-f123-45678910abcd"
        }
    }
}
